src/lab3/result.vcd
$date
	Mon May 17 17:38:16 2021
$end
$version
	Icarus Verilog
$end
$timescale
	10ps
$end
$scope module top_tb $end
$scope module TOP $end
$var wire 1 ! clk $end
$var wire 1 " rst $end
$var wire 1 # instr_read $end
$var wire 32 $ instr_out [31:0] $end
$var wire 32 % instr_addr [31:0] $end
$var wire 4 & data_write [3:0] $end
$var wire 1 ' data_read $end
$var wire 32 ( data_out [31:0] $end
$var wire 32 ) data_in [31:0] $end
$var wire 32 * data_addr [31:0] $end
$scope module i_CPU $end
$var wire 1 ! clk $end
$var wire 1 " rst $end
$var wire 32 + instr_out [31:0] $end
$var wire 32 , data_out [31:0] $end
$var reg 32 - count [31:0] $end
$var reg 32 . data_addr [31:0] $end
$var reg 32 / data_in [31:0] $end
$var reg 1 ' data_read $end
$var reg 4 0 data_write [3:0] $end
$var reg 32 1 instr_addr [31:0] $end
$var reg 1 # instr_read $end
$var reg 32 2 pc [31:0] $end
$var reg 3 3 state [2:0] $end
$var reg 64 4 temp [63:0] $end
$upscope $end
$scope module i_DM $end
$var wire 32 5 DI [31:0] $end
$var wire 14 6 addr [13:0] $end
$var wire 1 ! clk $end
$var wire 1 ' read $end
$var wire 1 " rst $end
$var wire 4 7 write [3:0] $end
$var wire 32 8 tmp_DO [31:0] $end
$var reg 32 9 DO [31:0] $end
$upscope $end
$scope module i_IM $end
$var wire 32 : DI [31:0] $end
$var wire 14 ; addr [13:0] $end
$var wire 1 ! clk $end
$var wire 1 # read $end
$var wire 1 " rst $end
$var wire 4 < write [3:0] $end
$var wire 32 = tmp_DO [31:0] $end
$var reg 32 > DO [31:0] $end
$upscope $end
$upscope $end
$upscope $end
$enddefinitions $end
#0
$dumpvars
bx >
bx =
b0 <
bx ;
b0 :
bx 9
bx 8
bx 7
bx 6
bx 5
bx 4
bx 3
bx 2
bx 1
bx 0
bx /
bx .
bx -
bx ,
bx +
bx *
bx )
bx (
x'
bx &
bx %
bx $
x#
1"
0!
$end
#500
b0 -
b0 3
b0 2
1!
#1000
0!
0"
#1500
b10010011 =
b0 ;
b0 &
b0 0
b0 7
0'
1#
b0 %
b0 1
b1 3
b1 -
1!
#2000
0!
#2500
b10 3
b10010011 $
b10010011 +
b10010011 >
bz (
bz ,
bz 9
1!
#3000
0!
#3500
0#
b0 3
b100 2
1!
#4000
0!
#4500
b100010011 =
b1 ;
1#
b100 %
b100 1
b1 3
bz $
bz +
bz >
b10 -
1!
#5000
0!
#5500
b100010011 $
b100010011 +
b100010011 >
b10 3
1!
#6000
0!
#6500
0#
b0 3
b1000 2
1!
#7000
0!
#7500
b110010011 =
b10 ;
bz $
bz +
bz >
1#
b1000 %
b1000 1
b1 3
b11 -
1!
#8000
0!
#8500
b10 3
b110010011 $
b110010011 +
b110010011 >
1!
#9000
0!
#9500
0#
b0 3
b1100 2
1!
#10000
0!
#10500
b1000010011 =
b11 ;
1#
b1100 %
b1100 1
b1 3
bz $
bz +
bz >
b100 -
1!
#11000
0!
#11500
b1000010011 $
b1000010011 +
b1000010011 >
b10 3
1!
#12000
0!
#12500
0#
b0 3
b10000 2
1!
#13000
0!
#13500
b1010010011 =
b100 ;
bz $
bz +
bz >
1#
b10000 %
b10000 1
b1 3
b101 -
1!
#14000
0!
#14500
b10 3
b1010010011 $
b1010010011 +
b1010010011 >
1!
#15000
0!
#15500
0#
b0 3
b10100 2
1!
#16000
0!
#16500
b1100010011 =
b101 ;
1#
b10100 %
b10100 1
b1 3
bz $
bz +
bz >
b110 -
1!
#17000
0!
#17500
b1100010011 $
b1100010011 +
b1100010011 >
b10 3
1!
#18000
0!
#18500
0#
b0 3
b11000 2
1!
#19000
0!
#19500
b1110010011 =
b110 ;
bz $
bz +
bz >
1#
b11000 %
b11000 1
b1 3
b111 -
1!
#20000
0!
#20500
b10 3
b1110010011 $
b1110010011 +
b1110010011 >
1!
#21000
0!
#21500
0#
b0 3
b11100 2
1!
#22000
0!
#22500
b10000010011 =
b111 ;
1#
b11100 %
b11100 1
b1 3
bz $
bz +
bz >
b1000 -
1!
#23000
0!
#23500
b10000010011 $
b10000010011 +
b10000010011 >
b10 3
1!
#24000
0!
#24500
0#
b0 3
b100000 2
1!
#25000
0!
#25500
b10010010011 =
b1000 ;
bz $
bz +
bz >
1#
b100000 %
b100000 1
b1 3
b1001 -
1!
#26000
0!
#26500
b10 3
b10010010011 $
b10010010011 +
b10010010011 >
1!
#27000
0!
#27500
0#
b0 3
b100100 2
1!
#28000
0!
#28500
b10100010011 =
b1001 ;
1#
b100100 %
b100100 1
b1 3
bz $
bz +
bz >
b1010 -
1!
#29000
0!
#29500
b10100010011 $
b10100010011 +
b10100010011 >
b10 3
1!
#30000
0!
#30500
0#
b0 3
b101000 2
1!
#31000
0!
#31500
b10110010011 =
b1010 ;
bz $
bz +
bz >
1#
b101000 %
b101000 1
b1 3
b1011 -
1!
#32000
0!
#32500
b10 3
b10110010011 $
b10110010011 +
b10110010011 >
1!
#33000
0!
#33500
0#
b0 3
b101100 2
1!
#34000
0!
#34500
b11000010011 =
b1011 ;
1#
b101100 %
b101100 1
b1 3
bz $
bz +
bz >
b1100 -
1!
#35000
0!
#35500
b11000010011 $
b11000010011 +
b11000010011 >
b10 3
1!
#36000
0!
#36500
0#
b0 3
b110000 2
1!
#37000
0!
#37500
b11010010011 =
b1100 ;
bz $
bz +
bz >
1#
b110000 %
b110000 1
b1 3
b1101 -
1!
#38000
0!
#38500
b10 3
b11010010011 $
b11010010011 +
b11010010011 >
1!
#39000
0!
#39500
0#
b0 3
b110100 2
1!
#40000
0!
#40500
b11100010011 =
b1101 ;
1#
b110100 %
b110100 1
b1 3
bz $
bz +
bz >
b1110 -
1!
#41000
0!
#41500
b11100010011 $
b11100010011 +
b11100010011 >
b10 3
1!
#42000
0!
#42500
0#
b0 3
b111000 2
1!
#43000
0!
#43500
b11110010011 =
b1110 ;
bz $
bz +
bz >
1#
b111000 %
b111000 1
b1 3
b1111 -
1!
#44000
0!
#44500
b10 3
b11110010011 $
b11110010011 +
b11110010011 >
1!
#45000
0!
#45500
0#
b0 3
b111100 2
1!
#46000
0!
#46500
b100000010011 =
b1111 ;
1#
b111100 %
b111100 1
b1 3
bz $
bz +
bz >
b10000 -
1!
#47000
0!
#47500
b100000010011 $
b100000010011 +
b100000010011 >
b10 3
1!
#48000
0!
#48500
0#
b0 3
b1000000 2
1!
#49000
0!
#49500
b100010010011 =
b10000 ;
bz $
bz +
bz >
1#
b1000000 %
b1000000 1
b1 3
b10001 -
1!
#50000
0!
#50500
b10 3
b100010010011 $
b100010010011 +
b100010010011 >
1!
#51000
0!
#51500
0#
b0 3
b1000100 2
1!
#52000
0!
#52500
b100100010011 =
b10001 ;
1#
b1000100 %
b1000100 1
b1 3
bz $
bz +
bz >
b10010 -
1!
#53000
0!
#53500
b100100010011 $
b100100010011 +
b100100010011 >
b10 3
1!
#54000
0!
#54500
0#
b0 3
b1001000 2
1!
#55000
0!
#55500
b100110010011 =
b10010 ;
bz $
bz +
bz >
1#
b1001000 %
b1001000 1
b1 3
b10011 -
1!
#56000
0!
#56500
b10 3
b100110010011 $
b100110010011 +
b100110010011 >
1!
#57000
0!
#57500
0#
b0 3
b1001100 2
1!
#58000
0!
#58500
b101000010011 =
b10011 ;
1#
b1001100 %
b1001100 1
b1 3
bz $
bz +
bz >
b10100 -
1!
#59000
0!
#59500
b101000010011 $
b101000010011 +
b101000010011 >
b10 3
1!
#60000
0!
#60500
0#
b0 3
b1010000 2
1!
#61000
0!
#61500
b101010010011 =
b10100 ;
bz $
bz +
bz >
1#
b1010000 %
b1010000 1
b1 3
b10101 -
1!
#62000
0!
#62500
b10 3
b101010010011 $
b101010010011 +
b101010010011 >
1!
#63000
0!
#63500
0#
b0 3
b1010100 2
1!
#64000
0!
#64500
b101100010011 =
b10101 ;
1#
b1010100 %
b1010100 1
b1 3
bz $
bz +
bz >
b10110 -
1!
#65000
0!
#65500
b101100010011 $
b101100010011 +
b101100010011 >
b10 3
1!
#66000
0!
#66500
0#
b0 3
b1011000 2
1!
#67000
0!
#67500
b101110010011 =
b10110 ;
bz $
bz +
bz >
1#
b1011000 %
b1011000 1
b1 3
b10111 -
1!
#68000
0!
#68500
b10 3
b101110010011 $
b101110010011 +
b101110010011 >
1!
#69000
0!
#69500
0#
b0 3
b1011100 2
1!
#70000
0!
#70500
b110000010011 =
b10111 ;
1#
b1011100 %
b1011100 1
b1 3
bz $
bz +
bz >
b11000 -
1!
#71000
0!
#71500
b110000010011 $
b110000010011 +
b110000010011 >
b10 3
1!
#72000
0!
#72500
0#
b0 3
b1100000 2
1!
#73000
0!
#73500
b110010010011 =
b11000 ;
bz $
bz +
bz >
1#
b1100000 %
b1100000 1
b1 3
b11001 -
1!
#74000
0!
#74500
b10 3
b110010010011 $
b110010010011 +
b110010010011 >
1!
#75000
0!
#75500
0#
b0 3
b1100100 2
1!
#76000
0!
#76500
b110100010011 =
b11001 ;
1#
b1100100 %
b1100100 1
b1 3
bz $
bz +
bz >
b11010 -
1!
#77000
0!
#77500
b110100010011 $
b110100010011 +
b110100010011 >
b10 3
1!
#78000
0!
#78500
0#
b0 3
b1101000 2
1!
#79000
0!
#79500
b110110010011 =
b11010 ;
bz $
bz +
bz >
1#
b1101000 %
b1101000 1
b1 3
b11011 -
1!
#80000
0!
#80500
b10 3
b110110010011 $
b110110010011 +
b110110010011 >
1!
#81000
0!
#81500
0#
b0 3
b1101100 2
1!
#82000
0!
#82500
b111000010011 =
b11011 ;
1#
b1101100 %
b1101100 1
b1 3
bz $
bz +
bz >
b11100 -
1!
#83000
0!
#83500
b111000010011 $
b111000010011 +
b111000010011 >
b10 3
1!
#84000
0!
#84500
0#
b0 3
b1110000 2
1!
#85000
0!
#85500
b111010010011 =
b11100 ;
bz $
bz +
bz >
1#
b1110000 %
b1110000 1
b1 3
b11101 -
1!
#86000
0!
#86500
b10 3
b111010010011 $
b111010010011 +
b111010010011 >
1!
#87000
0!
#87500
0#
b0 3
b1110100 2
1!
#88000
0!
#88500
b111100010011 =
b11101 ;
1#
b1110100 %
b1110100 1
b1 3
bz $
bz +
bz >
b11110 -
1!
#89000
0!
#89500
b111100010011 $
b111100010011 +
b111100010011 >
b10 3
1!
#90000
0!
#90500
0#
b0 3
b1111000 2
1!
#91000
0!
#91500
b111110010011 =
b11110 ;
bz $
bz +
bz >
1#
b1111000 %
b1111000 1
b1 3
b11111 -
1!
#92000
0!
#92500
b10 3
b111110010011 $
b111110010011 +
b111110010011 >
1!
#93000
0!
#93500
0#
b0 3
b1111100 2
1!
#94000
0!
#94500
b1001000110010111 =
b11111 ;
1#
b1111100 %
b1111100 1
b1 3
bz $
bz +
bz >
b100000 -
1!
#95000
0!
#95500
b1001000110010111 $
b1001000110010111 +
b1001000110010111 >
b10 3
1!
#96000
0!
#96500
0#
b0 3
b10000000 2
1!
#97000
0!
#97500
b10001000010000011000000110010011 =
b100000 ;
bz $
bz +
bz >
1#
b10000000 %
b10000000 1
b1 3
b100001 -
1!
#98000
0!
#98500
b10 3
b10001000010000011000000110010011 $
b10001000010000011000000110010011 +
b10001000010000011000000110010011 >
1!
#99000
0!
#99500
0#
b0 3
b10000100 2
1!
#100000
0!
#100500
b1000010100010111 =
b100001 ;
1#
b10000100 %
b10000100 1
b1 3
bz $
bz +
bz >
b100010 -
1!
#101000
0!
#101500
b1000010100010111 $
b1000010100010111 +
b1000010100010111 >
b10 3
1!
#102000
0!
#102500
0#
b0 3
b10001000 2
1!
#103000
0!
#103500
b111110001010000010100010011 =
b100010 ;
bz $
bz +
bz >
1#
b10001000 %
b10001000 1
b1 3
b100011 -
1!
#104000
0!
#104500
b10 3
b111110001010000010100010011 $
b111110001010000010100010011 +
b111110001010000010100010011 >
1!
#105000
0!
#105500
0#
b0 3
b10001100 2
1!
#106000
0!
#106500
b1000010110010111 =
b100011 ;
1#
b10001100 %
b10001100 1
b1 3
bz $
bz +
bz >
b100100 -
1!
#107000
0!
#107500
b1000010110010111 $
b1000010110010111 +
b1000010110010111 >
b10 3
1!
#108000
0!
#108500
0#
b0 3
b10010000 2
1!
#109000
0!
#109500
b111000001011000010110010011 =
b100100 ;
bz $
bz +
bz >
1#
b10010000 %
b10010000 1
b1 3
b100101 -
1!
#110000
0!
#110500
b10 3
b111000001011000010110010011 $
b111000001011000010110010011 +
b111000001011000010110010011 >
1!
#111000
0!
#111500
0#
b0 3
b10010100 2
1!
#112000
0!
#112500
b11000010011 =
b100101 ;
1#
b10010100 %
b10010100 1
b1 3
bz $
bz +
bz >
b100110 -
1!
#113000
0!
#113500
b11000010011 $
b11000010011 +
b11000010011 >
b10 3
1!
#114000
0!
#114500
0#
b0 3
b10011000 2
1!
#115000
0!
#115500
b110110000000000000011101111 =
b100110 ;
bz $
bz +
bz >
1#
b10011000 %
b10011000 1
b1 3
b100111 -
1!
#116000
0!
#116500
b10 3
b110110000000000000011101111 $
b110110000000000000011101111 +
b110110000000000000011101111 >
1!
#117000
0!
#117500
0#
b0 3
b100000100 2
1!
#118000
0!
#118500
b101101010111100001100011 =
b1000001 ;
1#
b100000100 %
b100000100 1
b1 3
bz $
bz +
bz >
b101000 -
1!
#119000
0!
#119500
b101101010111100001100011 $
b101101010111100001100011 +
b101101010111100001100011 >
b10 3
1!
#120000
0!
#120500
0#
b0 3
b100010100 2
1!
#121000
0!
#121500
b1000000001100111 =
b1000101 ;
bz $
bz +
bz >
1#
b100010100 %
b100010100 1
b1 3
b101001 -
1!
#122000
0!
#122500
b10 3
b1000000001100111 $
b1000000001100111 +
b1000000001100111 >
1!
#123000
0!
#123500
b0 3
b10011100 2
0#
1!
#124000
0!
#124500
b1000010100010111 =
b100111 ;
1#
b10011100 %
b10011100 1
b1 3
bz $
bz +
bz >
b101010 -
1!
#125000
0!
#125500
b1000010100010111 $
b1000010100010111 +
b1000010100010111 >
b10 3
1!
#126000
0!
#126500
0#
b0 3
b10100000 2
1!
#127000
0!
#127500
b110010001010000010100010011 =
b101000 ;
bz $
bz +
bz >
1#
b10100000 %
b10100000 1
b1 3
b101011 -
1!
#128000
0!
#128500
b10 3
b110010001010000010100010011 $
b110010001010000010100010011 +
b110010001010000010100010011 >
1!
#129000
0!
#129500
0#
b0 3
b10100100 2
1!
#130000
0!
#130500
b1000010110010111 =
b101001 ;
1#
b10100100 %
b10100100 1
b1 3
bz $
bz +
bz >
b101100 -
1!
#131000
0!
#131500
b1000010110010111 $
b1000010110010111 +
b1000010110010111 >
b10 3
1!
#132000
0!
#132500
0#
b0 3
b10101000 2
1!
#133000
0!
#133500
b101100001011000010110010011 =
b101010 ;
bz $
bz +
bz >
1#
b10101000 %
b10101000 1
b1 3
b101101 -
1!
#134000
0!
#134500
b10 3
b101100001011000010110010011 $
b101100001011000010110010011 +
b101100001011000010110010011 >
1!
#135000
0!
#135500
0#
b0 3
b10101100 2
1!
#136000
0!
#136500
b11000010011 =
b101011 ;
1#
b10101100 %
b10101100 1
b1 3
bz $
bz +
bz >
b101110 -
1!
#137000
0!
#137500
b11000010011 $
b11000010011 +
b11000010011 >
b10 3
1!
#138000
0!
#138500
0#
b0 3
b10110000 2
1!
#139000
0!
#139500
b101010000000000000011101111 =
b101100 ;
bz $
bz +
bz >
1#
b10110000 %
b10110000 1
b1 3
b101111 -
1!
#140000
0!
#140500
b10 3
b101010000000000000011101111 $
b101010000000000000011101111 +
b101010000000000000011101111 >
1!
#141000
0!
#141500
0#
b0 3
b100000100 2
1!
#142000
0!
#142500
b101101010111100001100011 =
b1000001 ;
1#
b100000100 %
b100000100 1
b1 3
bz $
bz +
bz >
b110000 -
1!
#143000
0!
#143500
b101101010111100001100011 $
b101101010111100001100011 +
b101101010111100001100011 >
b10 3
1!
#144000
0!
#144500
0#
b0 3
b100010100 2
1!
#145000
0!
#145500
b1000000001100111 =
b1000101 ;
bz $
bz +
bz >
1#
b100010100 %
b100010100 1
b1 3
b110001 -
1!
#146000
0!
#146500
b10 3
b1000000001100111 $
b1000000001100111 +
b1000000001100111 >
1!
#147000
0!
#147500
b0 3
b10110100 2
0#
1!
#148000
0!
#148500
b1000010100010111 =
b101101 ;
1#
b10110100 %
b10110100 1
b1 3
bz $
bz +
bz >
b110010 -
1!
#149000
0!
#149500
b1000010100010111 $
b1000010100010111 +
b1000010100010111 >
b10 3
1!
#150000
0!
#150500
0#
b0 3
b10111000 2
1!
#151000
0!
#151500
b100110001010000010100010011 =
b101110 ;
bz $
bz +
bz >
1#
b10111000 %
b10111000 1
b1 3
b110011 -
1!
#152000
0!
#152500
b10 3
b100110001010000010100010011 $
b100110001010000010100010011 +
b100110001010000010100010011 >
1!
#153000
0!
#153500
0#
b0 3
b10111100 2
1!
#154000
0!
#154500
b1001010110010111 =
b101111 ;
1#
b10111100 %
b10111100 1
b1 3
bz $
bz +
bz >
b110100 -
1!
#155000
0!
#155500
b1001010110010111 $
b1001010110010111 +
b1001010110010111 >
b10 3
1!
#156000
0!
#156500
0#
b0 3
b11000000 2
1!
#157000
0!
#157500
b100000001011000010110010011 =
b110000 ;
bz $
bz +
bz >
1#
b11000000 %
b11000000 1
b1 3
b110101 -
1!
#158000
0!
#158500
b10 3
b100000001011000010110010011 $
b100000001011000010110010011 +
b100000001011000010110010011 >
1!
#159000
0!
#159500
0#
b0 3
b11000100 2
1!
#160000
0!
#160500
b11000010011 =
b110001 ;
1#
b11000100 %
b11000100 1
b1 3
bz $
bz +
bz >
b110110 -
1!
#161000
0!
#161500
b11000010011 $
b11000010011 +
b11000010011 >
b10 3
1!
#162000
0!
#162500
0#
b0 3
b11001000 2
1!
#163000
0!
#163500
b11110000000000000011101111 =
b110010 ;
bz $
bz +
bz >
1#
b11001000 %
b11001000 1
b1 3
b110111 -
1!
#164000
0!
#164500
b10 3
b11110000000000000011101111 $
b11110000000000000011101111 +
b11110000000000000011101111 >
1!
#165000
0!
#165500
0#
b0 3
b100000100 2
1!
#166000
0!
#166500
b101101010111100001100011 =
b1000001 ;
1#
b100000100 %
b100000100 1
b1 3
bz $
bz +
bz >
b111000 -
1!
#167000
0!
#167500
b101101010111100001100011 $
b101101010111100001100011 +
b101101010111100001100011 >
b10 3
1!
#168000
0!
#168500
0#
b0 3
b100001000 2
1!
#169000
0!
#169500
b110001010010000000100011 =
b1000010 ;
bz $
bz +
bz >
1#
b100001000 %
b100001000 1
b1 3
b111001 -
1!
#170000
0!
#170500
b10 3
b110001010010000000100011 $
b110001010010000000100011 +
b110001010010000000100011 >
1!
#171000
0!
#171500
b1111 &
b1111 0
b1111 7
b0 )
b0 /
b0 5
b0 3
b10000001000000 6
b100001100 2
b1000000100000000 *
b1000000100000000 .
1!
#172000
0!
#172500
b10001010000010100010011 =
b1000011 ;
b0 &
b0 0
b0 7
b100001100 %
b100001100 1
b1 3
b0 8
b111010 -
1!
#173000
0!
#173500
b10001010000010100010011 $
b10001010000010100010011 +
b10001010000010100010011 >
b10 3
1!
#174000
0!
#174500
0#
b0 3
b100010000 2
1!
#175000
0!
#175500
b11111111010111111111000001101111 =
b1000100 ;
bz $
bz +
bz >
1#
b100010000 %
b100010000 1
b1 3
b111011 -
1!
#176000
0!
#176500
b10 3
b11111111010111111111000001101111 $
b11111111010111111111000001101111 +
b11111111010111111111000001101111 >
1!
#177000
0!
#177500
0#
b0 3
b100000100 2
1!
#178000
0!
#178500
b101101010111100001100011 =
b1000001 ;
1#
b100000100 %
b100000100 1
b1 3
bz $
bz +
bz >
b111100 -
1!
#179000
0!
#179500
b101101010111100001100011 $
b101101010111100001100011 +
b101101010111100001100011 >
b10 3
1!
#180000
0!
#180500
0#
b0 3
b100001000 2
1!
#181000
0!
#181500
b110001010010000000100011 =
b1000010 ;
bz $
bz +
bz >
1#
b100001000 %
b100001000 1
b1 3
b111101 -
1!
#182000
0!
#182500
b10 3
b110001010010000000100011 $
b110001010010000000100011 +
b110001010010000000100011 >
1!
#183000
0!
#183500
b1111 &
b1111 0
b1111 7
b0 3
bx 8
b10000001000001 6
b100001100 2
b1000000100000100 *
b1000000100000100 .
1!
#184000
0!
#184500
b10001010000010100010011 =
b1000011 ;
b0 &
b0 0
b0 7
b100001100 %
b100001100 1
b1 3
b0 8
b111110 -
1!
#185000
0!
#185500
b10001010000010100010011 $
b10001010000010100010011 +
b10001010000010100010011 >
b10 3
1!
#186000
0!
#186500
0#
b0 3
b100010000 2
1!
#187000
0!
#187500
b11111111010111111111000001101111 =
b1000100 ;
bz $
bz +
bz >
1#
b100010000 %
b100010000 1
b1 3
b111111 -
1!
#188000
0!
#188500
b10 3
b11111111010111111111000001101111 $
b11111111010111111111000001101111 +
b11111111010111111111000001101111 >
1!
#189000
0!
#189500
0#
b0 3
b100000100 2
1!
#190000
0!
#190500
b101101010111100001100011 =
b1000001 ;
1#
b100000100 %
b100000100 1
b1 3
bz $
bz +
bz >
b1000000 -
1!
#191000
0!
#191500
b101101010111100001100011 $
b101101010111100001100011 +
b101101010111100001100011 >
b10 3
1!
#192000
0!
#192500
0#
b0 3
b100001000 2
1!
#193000
0!
#193500
b110001010010000000100011 =
b1000010 ;
bz $
bz +
bz >
1#
b100001000 %
b100001000 1
b1 3
b1000001 -
1!
#194000
0!
#194500
b10 3
b110001010010000000100011 $
b110001010010000000100011 +
b110001010010000000100011 >
1!
#195000
0!
#195500
b1111 &
b1111 0
b1111 7
b0 3
bx 8
b10000001000010 6
b100001100 2
b1000000100001000 *
b1000000100001000 .
1!
#196000
0!
#196500
b10001010000010100010011 =
b1000011 ;
b0 &
b0 0
b0 7
b100001100 %
b100001100 1
b1 3
b0 8
b1000010 -
1!
#197000
0!
#197500
b10001010000010100010011 $
b10001010000010100010011 +
b10001010000010100010011 >
b10 3
1!
#198000
0!
#198500
0#
b0 3
b100010000 2
1!
#199000
0!
#199500
b11111111010111111111000001101111 =
b1000100 ;
bz $
bz +
bz >
1#
b100010000 %
b100010000 1
b1 3
b1000011 -
1!
#200000
0!
#200500
b10 3
b11111111010111111111000001101111 $
b11111111010111111111000001101111 +
b11111111010111111111000001101111 >
1!
#201000
0!
#201500
0#
b0 3
b100000100 2
1!
#202000
0!
#202500
b101101010111100001100011 =
b1000001 ;
1#
b100000100 %
b100000100 1
b1 3
bz $
bz +
bz >
b1000100 -
1!
#203000
0!
#203500
b101101010111100001100011 $
b101101010111100001100011 +
b101101010111100001100011 >
b10 3
1!
#204000
0!
#204500
0#
b0 3
b100001000 2
1!
#205000
0!
#205500
b110001010010000000100011 =
b1000010 ;
bz $
bz +
bz >
1#
b100001000 %
b100001000 1
b1 3
b1000101 -
1!
#206000
0!
#206500
b10 3
b110001010010000000100011 $
b110001010010000000100011 +
b110001010010000000100011 >
1!
#207000
0!
#207500
b1111 &
b1111 0
b1111 7
b0 3
bx 8
b10000001000011 6
b100001100 2
b1000000100001100 *
b1000000100001100 .
1!
#208000
0!
#208500
b10001010000010100010011 =
b1000011 ;
b0 &
b0 0
b0 7
b100001100 %
b100001100 1
b1 3
b0 8
b1000110 -
1!
#209000
0!
#209500
b10001010000010100010011 $
b10001010000010100010011 +
b10001010000010100010011 >
b10 3
1!
#210000
0!
#210500
0#
b0 3
b100010000 2
1!
#211000
0!
#211500
b11111111010111111111000001101111 =
b1000100 ;
bz $
bz +
bz >
1#
b100010000 %
b100010000 1
b1 3
b1000111 -
1!
#212000
0!
#212500
b10 3
b11111111010111111111000001101111 $
b11111111010111111111000001101111 +
b11111111010111111111000001101111 >
1!
#213000
0!
#213500
0#
b0 3
b100000100 2
1!
#214000
0!
#214500
b101101010111100001100011 =
b1000001 ;
1#
b100000100 %
b100000100 1
b1 3
bz $
bz +
bz >
b1001000 -
1!
#215000
0!
#215500
b101101010111100001100011 $
b101101010111100001100011 +
b101101010111100001100011 >
b10 3
1!
#216000
0!
#216500
0#
b0 3
b100001000 2
1!
#217000
0!
#217500
b110001010010000000100011 =
b1000010 ;
bz $
bz +
bz >
1#
b100001000 %
b100001000 1
b1 3
b1001001 -
1!
#218000
0!
#218500
b10 3
b110001010010000000100011 $
b110001010010000000100011 +
b110001010010000000100011 >
1!
#219000
0!
#219500
b1111 &
b1111 0
b1111 7
b0 3
bx 8
b10000001000100 6
b100001100 2
b1000000100010000 *
b1000000100010000 .
1!
#220000
0!
#220500
b10001010000010100010011 =
b1000011 ;
b0 &
b0 0
b0 7
b100001100 %
b100001100 1
b1 3
b0 8
b1001010 -
1!
#221000
0!
#221500
b10001010000010100010011 $
b10001010000010100010011 +
b10001010000010100010011 >
b10 3
1!
#222000
0!
#222500
0#
b0 3
b100010000 2
1!
#223000
0!
#223500
b11111111010111111111000001101111 =
b1000100 ;
bz $
bz +
bz >
1#
b100010000 %
b100010000 1
b1 3
b1001011 -
1!
#224000
0!
#224500
b10 3
b11111111010111111111000001101111 $
b11111111010111111111000001101111 +
b11111111010111111111000001101111 >
1!
#225000
0!
#225500
0#
b0 3
b100000100 2
1!
#226000
0!
#226500
b101101010111100001100011 =
b1000001 ;
1#
b100000100 %
b100000100 1
b1 3
bz $
bz +
bz >
b1001100 -
1!
#227000
0!
#227500
b101101010111100001100011 $
b101101010111100001100011 +
b101101010111100001100011 >
b10 3
1!
#228000
0!
#228500
0#
b0 3
b100001000 2
1!
#229000
0!
#229500
b110001010010000000100011 =
b1000010 ;
bz $
bz +
bz >
1#
b100001000 %
b100001000 1
b1 3
b1001101 -
1!
#230000
0!
#230500
b10 3
b110001010010000000100011 $
b110001010010000000100011 +
b110001010010000000100011 >
1!
#231000
0!
#231500
b1111 &
b1111 0
b1111 7
b0 3
bx 8
b10000001000101 6
b100001100 2
b1000000100010100 *
b1000000100010100 .
1!
#232000
0!
#232500
b10001010000010100010011 =
b1000011 ;
b0 &
b0 0
b0 7
b100001100 %
b100001100 1
b1 3
b0 8
b1001110 -
1!
#233000
0!
#233500
b10001010000010100010011 $
b10001010000010100010011 +
b10001010000010100010011 >
b10 3
1!
#234000
0!
#234500
0#
b0 3
b100010000 2
1!
#235000
0!
#235500
b11111111010111111111000001101111 =
b1000100 ;
bz $
bz +
bz >
1#
b100010000 %
b100010000 1
b1 3
b1001111 -
1!
#236000
0!
#236500
b10 3
b11111111010111111111000001101111 $
b11111111010111111111000001101111 +
b11111111010111111111000001101111 >
1!
#237000
0!
#237500
0#
b0 3
b100000100 2
1!
#238000
0!
#238500
b101101010111100001100011 =
b1000001 ;
1#
b100000100 %
b100000100 1
b1 3
bz $
bz +
bz >
b1010000 -
1!
#239000
0!
#239500
b101101010111100001100011 $
b101101010111100001100011 +
b101101010111100001100011 >
b10 3
1!
#240000
0!
#240500
0#
b0 3
b100001000 2
1!
#241000
0!
#241500
b110001010010000000100011 =
b1000010 ;
bz $
bz +
bz >
1#
b100001000 %
b100001000 1
b1 3
b1010001 -
1!
#242000
0!
#242500
b10 3
b110001010010000000100011 $
b110001010010000000100011 +
b110001010010000000100011 >
1!
#243000
0!
#243500
b1111 &
b1111 0
b1111 7
b0 3
bx 8
b10000001000110 6
b100001100 2
b1000000100011000 *
b1000000100011000 .
1!
#244000
0!
#244500
b10001010000010100010011 =
b1000011 ;
b0 &
b0 0
b0 7
b100001100 %
b100001100 1
b1 3
b0 8
b1010010 -
1!
#245000
0!
#245500
b10001010000010100010011 $
b10001010000010100010011 +
b10001010000010100010011 >
b10 3
1!
#246000
0!
#246500
0#
b0 3
b100010000 2
1!
#247000
0!
#247500
b11111111010111111111000001101111 =
b1000100 ;
bz $
bz +
bz >
1#
b100010000 %
b100010000 1
b1 3
b1010011 -
1!
#248000
0!
#248500
b10 3
b11111111010111111111000001101111 $
b11111111010111111111000001101111 +
b11111111010111111111000001101111 >
1!
#249000
0!
#249500
0#
b0 3
b100000100 2
1!
#250000
0!
#250500
b101101010111100001100011 =
b1000001 ;
1#
b100000100 %
b100000100 1
b1 3
bz $
bz +
bz >
b1010100 -
1!
#251000
0!
#251500
b101101010111100001100011 $
b101101010111100001100011 +
b101101010111100001100011 >
b10 3
1!
#252000
0!
#252500
0#
b0 3
b100001000 2
1!
#253000
0!
#253500
b110001010010000000100011 =
b1000010 ;
bz $
bz +
bz >
1#
b100001000 %
b100001000 1
b1 3
b1010101 -
1!
#254000
0!
#254500
b10 3
b110001010010000000100011 $
b110001010010000000100011 +
b110001010010000000100011 >
1!
#255000
0!
#255500
b1111 &
b1111 0
b1111 7
b0 3
bx 8
b10000001000111 6
b100001100 2
b1000000100011100 *
b1000000100011100 .
1!
#256000
0!
#256500
b10001010000010100010011 =
b1000011 ;
b0 &
b0 0
b0 7
b100001100 %
b100001100 1
b1 3
b0 8
b1010110 -
1!
#257000
0!
#257500
b10001010000010100010011 $
b10001010000010100010011 +
b10001010000010100010011 >
b10 3
1!
#258000
0!
#258500
0#
b0 3
b100010000 2
1!
#259000
0!
#259500
b11111111010111111111000001101111 =
b1000100 ;
bz $
bz +
bz >
1#
b100010000 %
b100010000 1
b1 3
b1010111 -
1!
#260000
0!
#260500
b10 3
b11111111010111111111000001101111 $
b11111111010111111111000001101111 +
b11111111010111111111000001101111 >
1!
#261000
0!
#261500
0#
b0 3
b100000100 2
1!
#262000
0!
#262500
b101101010111100001100011 =
b1000001 ;
1#
b100000100 %
b100000100 1
b1 3
bz $
bz +
bz >
b1011000 -
1!
#263000
0!
#263500
b101101010111100001100011 $
b101101010111100001100011 +
b101101010111100001100011 >
b10 3
1!
#264000
0!
#264500
0#
b0 3
b100001000 2
1!
#265000
0!
#265500
b110001010010000000100011 =
b1000010 ;
bz $
bz +
bz >
1#
b100001000 %
b100001000 1
b1 3
b1011001 -
1!
#266000
0!
#266500
b10 3
b110001010010000000100011 $
b110001010010000000100011 +
b110001010010000000100011 >
1!
#267000
0!
